2 Sentiment analysis with tidy data | Text Mining with R
…
bing from Bing Liu and collaborators, and

nrc from Saif Mohammad and Peter Turney.

All three of these lexicons are based on unigrams, i.e., single words. These lexicons contain many English words and the words are assigned scores for positive/negative sentiment, and also possibly emotions like joy, anger, sadness, and so forth. The nrc lexicon categorizes words in a binary fashion (“yes”/“no”) into categories of positive, negative, anger, anticipation, disgust, fear, joy, sadness, surprise, and trust. The bing lexicon categorizes words in a binary fashion into positive and negative categories. The AFINN lexicon assigns words with a score that runs between -5 and 5, with negative scores indicating negative sentiment and positive scores indicating positive sentiment.

These lexicons are available under different licenses, so be sure that the license for the lexicon you want to use is appropriate for your project. You may be asked to agree to a license before downloading data.

The function get_sentiments() allows us to get specific sentiment lexicons with the appropriate measures for each one.

library(tidytext)

get_sentiments("afinn")

#> # A tibble: 2,477 × 2
#>    word       value
#>    <chr>      <dbl>
#>  1 abandon       -2
#>  2 abandoned     -2
#>  3 abandons      -2
#>  4 abducted      -2
#>  5 abduction     -2
#>  6 abductions    -2
#>  7 abhor         -3
#>  8 abhorred      -3
#>  9 abhorrent     -3
#> 10 abhors        -3
#> # … with 2,467 more rows

get_sentiments("bing")
#> # A tibble: 6,786 × 2
#>    word        sentiment
#>    <chr>       <chr>    
#>  1 2-faces     negative 
#>  2 abnormal    negative 
#>  3 abolish     negative 
#>  4 abominable  negative 
#>  5 abominably  negative 
#>  6 abominate   negative 
#>  7 abomination negative 
#>  8 abort       negative 
#>  9 aborted     negative 
#> 10 aborts      negative 
#> # … with 6,776 more rows

get_sentiments("nrc")

#> # A tibble: 13,901 × 2
#>    word        sentiment
#>    <chr>       <chr>    
#>  1 abacus      trust    
#>  2 abandon     fear     
#>  3 abandon     negative 
#>  4 abandon     sadness  
#>  5 abandoned   anger    
#>  6 abandoned   fear     
#>  7 abandoned   negative 
#>  8 abandoned   sadness  
#>  9 abandonment anger    
#> 10 abandonment fear     
#> # … with 13,891 more rows
…
Notice that we chose the name word for the output column from unnest_tokens(). This is a convenient choice because the sentiment lexicons and stop word datasets have columns named word; performing inner joins and anti-joins is thus easier.

Now that the text is in a tidy format with one word per row, we are ready to do the sentiment analysis. First, let’s use the NRC lexicon and filter() for the joy words. Next, let’s filter() the data frame with the text from the books for the words from Emma and then use inner_join() to perform the sentiment analysis. What are the most common joy words in Emma? Let’s use count() from dplyr.

nrc_joy <- get_sentiments("nrc") %>% 
  filter(sentiment == "joy")

tidy_books %>%
  filter(book == "Emma") %>%
  inner_join(nrc_joy) %>%
  count(word, sort = TRUE)

#> # A tibble: 303 × 2
#>    word        n
#>    <chr>   <int>
#>  1 good      359
#>  2 young     192
#>  3 friend    166
#>  4 hope      143
#>  5 happy     125
#>  6 love      117
#>  7 deal       92
#>  8 found      92
#>  9 present    89
#> 10 kind       82
#> # … with 293 more rows
…
Figure 2.2: Sentiment through the narratives of Jane Austen’s novels

We can see in Figure 2.2 how the plot of each novel changes toward more positive or negative sentiment over the trajectory of the story.

2.3 Comparing the three sentiment dictionaries

With several options for sentiment lexicons, you might want some more information on which one is appropriate for your purposes. Let’s use all three sentiment lexicons and examine how the sentiment changes across the narrative arc of Pride and Prejudice. First, let’s use filter() to choose only the words from the one novel we are interested in.

pride_prejudice <- tidy_books %>% 
  filter(book == "Pride & Prejudice")

pride_prejudice
#> # A tibble: 122,204 × 4
#>    book              linenumber chapter word     
#>    <fct>                  <int>   <int> <chr>    
#>  1 Pride & Prejudice          1       0 pride    
#>  2 Pride & Prejudice          1       0 and      
#>  3 Pride & Prejudice          1       0 prejudice
#>  4 Pride & Prejudice          3       0 by       
#>  5 Pride & Prejudice          3       0 jane     
#>  6 Pride & Prejudice          3       0 austen   
#>  7 Pride & Prejudice          7       1 chapter  
#>  8 Pride & Prejudice          7       1 1        
#>  9 Pride & Prejudice         10       1 it       
#> 10 Pride & Prejudice         10       1 is       
#> # … with 122,194 more rows
…
Both lexicons have more negative than positive words, but the ratio of negative to positive words is higher in the Bing lexicon than the NRC lexicon. This will contribute to the effect we see in the plot above, as will any systematic difference in word matches, e.g. if the negative words in the NRC lexicon do not match the words that Jane Austen uses very well. Whatever the source of these differences, we see similar relative trajectories across the narrative arc, with similar changes in slope, but marked differences in absolute sentiment from lexicon to lexicon. This is all important context to keep in mind when choosing a sentiment lexicon for analysis.

2.4 Most common positive and negative words

One advantage of having the data frame with both sentiment and word is that we can analyze word counts that contribute to each sentiment. By implementing count() here with arguments of both word and sentiment, we find out how much each word contributed to each sentiment.

bing_word_counts <- tidy_books %>%
  inner_join(get_sentiments("bing")) %>%
  count(word, sentiment, sort = TRUE) %>%
  ungroup()

bing_word_counts
#> # A tibble: 2,585 × 3
#>    word     sentiment     n
#>    <chr>    <chr>     <int>
#>  1 miss     negative   1855
#>  2 well     positive   1523
#>  3 good     positive   1380
#>  4 great    positive    981
#>  5 like     positive    725
#>  6 better   positive    639
#>  7 enough   positive    613
#>  8 happy    positive    534
#>  9 love     positive    495
#> 10 pleasure positive    462
#> # … with 2,575 more rows
…
Figure 2.4: Words that contribute to positive and negative sentiment in Jane Austen’s novels

Figure 2.4 lets us spot an anomaly in the sentiment analysis; the word “miss” is coded as negative but it is used as a title for young, unmarried women in Jane Austen’s works. If it were appropriate for our purposes, we could easily add “miss” to a custom stop-words list using bind_rows(). We could implement that with a strategy such as this.

custom_stop_words <- bind_rows(tibble(word = c("miss"),  
                                      lexicon = c("custom")), 
                               stop_words)

custom_stop_words
#> # A tibble: 1,150 × 2
#>    word        lexicon
#>    <chr>       <chr>  
#>  1 miss        custom 
#>  2 a           SMART  
#>  3 a's         SMART  
#>  4 able        SMART  
#>  5 about       SMART  
#>  6 above       SMART  
#>  7 according   SMART  
#>  8 accordingly SMART  
#>  9 across      SMART  
#> 10 actually    SMART  
#> # … with 1,140 more rows
…
