3 Analyzing word and document frequency: tf-idf | Text Mining with R
…
book_words <- austen_books() %>%
  unnest_tokens(word, text) %>%
  count(book, word, sort = TRUE)

total_words <- book_words %>% 
  group_by(book) %>% 
  summarize(total = sum(n))

book_words <- left_join(book_words, total_words)

book_words
#> # A tibble: 40,379 × 4
#>    book              word      n  total
#>    <fct>             <chr> <int>  <int>
#>  1 Mansfield Park    the    6206 160460
#>  2 Mansfield Park    to     5475 160460
#>  3 Mansfield Park    and    5438 160460
#>  4 Emma              to     5239 160996
#>  5 Emma              the    5201 160996
#>  6 Emma              and    4896 160996
#>  7 Mansfield Park    of     4778 160460
#>  8 Pride & Prejudice the    4331 122204
#>  9 Emma              of     4291 160996
#> 10 Pride & Prejudice to     4162 122204
#> # … with 40,369 more rows
…
Distributions like those shown in Figure 3.1 are typical in language. In fact, those types of long-tailed distributions are so common in any given corpus of natural language (like a book, or a lot of text from a website, or spoken words) that the relationship between the frequency that a word is used and its rank has been the subject of study; a classic version of this relationship is called Zipf’s law, after George Zipf, a 20th century American linguist.

Zipf’s law states that the frequency that a word appears is inversely proportional to its rank.

Since we have the data frame we used to plot term frequency, we can examine Zipf’s law for Jane Austen’s novels with just a few lines of dplyr functions.

freq_by_rank <- book_words %>% 
  group_by(book) %>% 
  mutate(rank = row_number(), 
         `term frequency` = n/total) %>%
  ungroup()

freq_by_rank
#> # A tibble: 40,379 × 6
#>    book              word      n  total  rank `term frequency`
#>    <fct>             <chr> <int>  <int> <int>            <dbl>
#>  1 Mansfield Park    the    6206 160460     1           0.0387
#>  2 Mansfield Park    to     5475 160460     2           0.0341
#>  3 Mansfield Park    and    5438 160460     3           0.0339
#>  4 Emma              to     5239 160996     1           0.0325
#>  5 Emma              the    5201 160996     2           0.0323
#>  6 Emma              and    4896 160996     3           0.0304
#>  7 Mansfield Park    of     4778 160460     4           0.0298
#>  8 Pride & Prejudice the    4331 122204     1           0.0354
#>  9 Emma              of     4291 160996     4           0.0267
#> 10 Pride & Prejudice to     4162 122204     2           0.0341
#> # … with 40,369 more rows
…
Figure 3.3: Fitting an exponent for Zipf’s law with Jane Austen’s novels

We have found a result close to the classic version of Zipf’s law for the corpus of Jane Austen’s novels. The deviations we see here at high rank are not uncommon for many kinds of language; a corpus of language often contains fewer rare words than predicted by a single power law. The deviations at low rank are more unusual. Jane Austen uses a lower percentage of the most common words than many collections of language. This kind of analysis could be extended to compare authors, or to compare any other collections of text; it can be implemented simply using tidy data principles.

3.3 The bind_tf_idf() function

The idea of tf-idf is to find the important words for the content of each document by decreasing the weight for commonly used words and increasing the weight for words that are not used very much in a collection or corpus of documents, in this case, the group of Jane Austen’s novels as a whole. Calculating tf-idf attempts to find the words that are important (i.e., common) in a text, but not too common. Let’s do that now.

The bind_tf_idf() function in the tidytext package takes a tidy text dataset as input with one row per token (term), per document. One column (word here) contains the terms/tokens, one column contains the documents (book in this case), and the last necessary column contains the counts, how many times each document contains each term (n in this example). We calculated a total for each book for our explorations in previous sections, but it is not necessary for the bind_tf_idf() function; the table only needs to contain all the words in each document.

book_tf_idf <- book_words %>%
  bind_tf_idf(word, book, n)

book_tf_idf
#> # A tibble: 40,379 × 7
#>    book              word      n  total     tf   idf tf_idf
#>    <fct>             <chr> <int>  <int>  <dbl> <dbl>  <dbl>
#>  1 Mansfield Park    the    6206 160460 0.0387     0      0
#>  2 Mansfield Park    to     5475 160460 0.0341     0      0
#>  3 Mansfield Park    and    5438 160460 0.0339     0      0
#>  4 Emma              to     5239 160996 0.0325     0      0
#>  5 Emma              the    5201 160996 0.0323     0      0
#>  6 Emma              and    4896 160996 0.0304     0      0
#>  7 Mansfield Park    of     4778 160460 0.0298     0      0
#>  8 Pride & Prejudice the    4331 122204 0.0354     0      0
#>  9 Emma              of     4291 160996 0.0267     0      0
#> 10 Pride & Prejudice to     4162 122204 0.0341     0      0
#> # … with 40,369 more rows

Notice that idf and thus tf-idf are zero for these extremely common words. These are all words that appear in all six of Jane Austen’s novels, so the idf term (which will then be the natural log of 1) is zero. The inverse document frequency (and thus tf-idf) is very low (near zero) for words that occur in many of the documents in a collection; this is how this approach decreases the weight for common words. The inverse document frequency will be a higher number for words that occur in fewer of the documents in the collection.

Let’s look at terms with high tf-idf in Jane Austen’s works.

book_tf_idf %>%
  select(-total) %>%
  arrange(desc(tf_idf))
#> # A tibble: 40,379 × 6
#>    book                word          n      tf   idf  tf_idf
#>    <fct>               <chr>     <int>   <dbl> <dbl>   <dbl>
#>  1 Sense & Sensibility elinor      623 0.00519  1.79 0.00931
#>  2 Sense & Sensibility marianne    492 0.00410  1.79 0.00735
#>  3 Mansfield Park      crawford    493 0.00307  1.79 0.00551
#>  4 Pride & Prejudice   darcy       373 0.00305  1.79 0.00547
#>  5 Persuasion          elliot      254 0.00304  1.79 0.00544
#>  6 Emma                emma        786 0.00488  1.10 0.00536
#>  7 Northanger Abbey    tilney      196 0.00252  1.79 0.00452
#>  8 Emma                weston      389 0.00242  1.79 0.00433
#>  9 Pride & Prejudice   bennet      294 0.00241  1.79 0.00431
#> 10 Persuasion          wentworth   191 0.00228  1.79 0.00409
#> # … with 40,369 more rows
…
This is a pretty diverse bunch. They may all be physics classics, but they were written across a 300-year timespan, and some of them were first written in other languages and then translated to English. Perfectly homogeneous these are not, but that doesn’t stop this from being an interesting exercise!

library(gutenbergr)
physics <- gutenberg_download(c(37729, 14725, 13476, 30155), 
                              meta_fields = "author")

Now that we have the texts, let’s use unnest_tokens() and count() to find out how many times each word was used in each text.

physics_words <- physics %>%
  unnest_tokens(word, text) %>%
  count(author, word, sort = TRUE)

physics_words
#> # A tibble: 12,671 × 3
#>    author              word      n
#>    <chr>               <chr> <int>
#>  1 Galilei, Galileo    the    3760
#>  2 Tesla, Nikola       the    3604
#>  3 Huygens, Christiaan the    3553
#>  4 Einstein, Albert    the    2993
#>  5 Galilei, Galileo    of     2049
#>  6 Einstein, Albert    of     2028
#>  7 Tesla, Nikola       of     1737
#>  8 Huygens, Christiaan of     1708
#>  9 Huygens, Christiaan to     1207
#> 10 Tesla, Nikola       a      1176
#> # … with 12,661 more rows
…
Some cleaning up of the text may be in order. Also notice that there are separate “co” and “ordinate” items in the high tf-idf words for the Einstein text; the unnest_tokens() function separates around punctuation like hyphens by default. Notice that the tf-idf scores for “co” and “ordinate” are close to same!

“AB”, “RC”, and so forth are names of rays, circles, angles, and so forth for Huygens.

physics %>% 
  filter(str_detect(text, "RC")) %>% 
  select(text)
#> # A tibble: 44 × 1
#>    text                                                                  
#>    <chr>                                                                 
#>  1 line RC, parallel and equal to AB, to be a portion of a wave of light,
#>  2 represents the partial wave coming from the point A, after the wave RC
#>  3 be the propagation of the wave RC which fell on AB, and would be the  
#>  4 transparent body; seeing that the wave RC, having come to the aperture
#>  5 incident rays. Let there be such a ray RC falling upon the surface    
#>  6 CK. Make CO perpendicular to RC, and across the angle KCO adjust OK,  
#>  7 the required refraction of the ray RC. The demonstration of this is,  
#>  8 explaining ordinary refraction. For the refraction of the ray RC is   
#>  9 29. Now as we have found CI the refraction of the ray RC, similarly   
#> 10 the ray _r_C is inclined equally with RC, the line C_d_ will          
#> # … with 34 more rows
…
