4 Relationships between words: n-grams and correlations | Text Mining with R
…
4.1 Tokenizing by n-gram

We’ve been using the unnest_tokens function to tokenize by word, or sometimes by sentence, which is useful for the kinds of sentiment and frequency analyses we’ve been doing so far. But we can also use the function to tokenize into consecutive sequences of words, called n-grams. By seeing how often word X is followed by word Y, we can then build a model of the relationships between them.

We do this by adding the token = "ngrams" option to unnest_tokens(), and setting n to the number of words we wish to capture in each n-gram. When we set n to 2, we are examining pairs of two consecutive words, often called “bigrams”:

library(dplyr)
library(tidytext)
library(janeaustenr)

austen_bigrams <- austen_books() %>%
  unnest_tokens(bigram, text, token = "ngrams", n = 2)

austen_bigrams
#> # A tibble: 675,025 × 2
#>    book                bigram         
#>    <fct>               <chr>          
#>  1 Sense & Sensibility sense and      
#>  2 Sense & Sensibility and sensibility
#>  3 Sense & Sensibility <NA>           
#>  4 Sense & Sensibility by jane        
#>  5 Sense & Sensibility jane austen    
#>  6 Sense & Sensibility <NA>           
#>  7 Sense & Sensibility <NA>           
#>  8 Sense & Sensibility <NA>           
#>  9 Sense & Sensibility <NA>           
#> 10 Sense & Sensibility <NA>           
#> # … with 675,015 more rows

This data structure is still a variation of the tidy text format. It is structured as one-token-per-row (with extra metadata, such as book, still preserved), but each token now represents a bigram.

Notice that these bigrams overlap: “sense and” is one token, while “and sensibility” is another.

4.1.1 Counting and filtering n-grams

Our usual tidy tools apply equally well to n-gram analysis. We can examine the most common bigrams using dplyr’s count():

austen_bigrams %>%
  count(bigram, sort = TRUE)
#> # A tibble: 193,210 × 2
#>    bigram      n
#>    <chr>   <int>
#>  1 <NA>    12242
#>  2 of the   2853
#>  3 to be    2670
#>  4 in the   2221
#>  5 it was   1691
#>  6 i am     1485
#>  7 she had  1405
#>  8 of her   1363
#>  9 to the   1315
#> 10 she was  1309
#> # … with 193,200 more rows
…
library(tidyr)

bigrams_separated <- austen_bigrams %>%
  separate(bigram, c("word1", "word2"), sep = " ")

bigrams_filtered <- bigrams_separated %>%
  filter(!word1 %in% stop_words$word) %>%
  filter(!word2 %in% stop_words$word)

# new bigram counts:
bigram_counts <- bigrams_filtered %>% 
  count(word1, word2, sort = TRUE)

bigram_counts
#> # A tibble: 28,975 × 3
#>    word1   word2         n
#>    <chr>   <chr>     <int>
#>  1 <NA>    <NA>      12242
#>  2 sir     thomas      266
#>  3 miss    crawford    196
#>  4 captain wentworth   143
#>  5 miss    woodhouse   143
#>  6 frank   churchill   114
#>  7 lady    russell     110
#>  8 sir     walter      108
#>  9 lady    bertram     101
#> 10 miss    fairfax      98
#> # … with 28,965 more rows

We can see that names (whether first and last or with a salutation) are the most common pairs in Jane Austen books.

In other analyses, we may want to work with the recombined words. tidyr’s unite() function is the inverse of separate(), and lets us recombine the columns into one. Thus, “separate/filter/count/unite” let us find the most common bigrams not containing stop-words.

bigrams_united <- bigrams_filtered %>%
  unite(bigram, word1, word2, sep = " ")

bigrams_united
#> # A tibble: 51,155 × 2
#>    book                bigram     
#>    <fct>               <chr>      
#>  1 Sense & Sensibility NA NA      
#>  2 Sense & Sensibility jane austen
#>  3 Sense & Sensibility NA NA      
#>  4 Sense & Sensibility NA NA      
#>  5 Sense & Sensibility NA NA      
#>  6 Sense & Sensibility NA NA      
#>  7 Sense & Sensibility NA NA      
#>  8 Sense & Sensibility NA NA      
#>  9 Sense & Sensibility chapter 1  
#> 10 Sense & Sensibility NA NA      
#> # … with 51,145 more rows

In other analyses you may be interested in the most common trigrams, which are consecutive sequences of 3 words. We can find this by setting n = 3:

austen_books() %>%
  unnest_tokens(trigram, text, token = "ngrams", n = 3) %>%
  separate(trigram, c("word1", "word2", "word3"), sep = " ") %>%
  filter(!word1 %in% stop_words$word,
         !word2 %in% stop_words$word,
         !word3 %in% stop_words$word) %>%
  count(word1, word2, word3, sort = TRUE)
#> # A tibble: 6,141 × 4
#>    word1     word2     word3         n
#>    <chr>     <chr>     <chr>     <int>
#>  1 <NA>      <NA>      <NA>      13260
#>  2 dear      miss      woodhouse    20
#>  3 miss      de        bourgh       17
#>  4 lady      catherine de           11
#>  5 poor      miss      taylor       11
#>  6 sir       walter    elliot       10
#>  7 catherine de        bourgh        9
#>  8 dear      sir       thomas        8
#>  9 replied   miss      crawford      7
#> 10 sir       william   lucas         7
#> # … with 6,131 more rows

4.1.2 Analyzing bigrams

This one-bigram-per-row format is helpful for exploratory analyses of the text. As a simple example, we might be interested in the most common “streets” mentioned in each book:

bigrams_filtered %>%
  filter(word2 == "street") %>%
  count(book, word1, sort = TRUE)
#> # A tibble: 33 × 3
#>    book                word1           n
#>    <fct>               <chr>       <int>
#>  1 Sense & Sensibility harley         16
#>  2 Sense & Sensibility berkeley       15
#>  3 Northanger Abbey    milsom         10
#>  4 Northanger Abbey    pulteney       10
#>  5 Mansfield Park      wimpole         9
#>  6 Pride & Prejudice   gracechurch     8
#>  7 Persuasion          milsom          5
#>  8 Sense & Sensibility bond            4
#>  9 Sense & Sensibility conduit         4
#> 10 Persuasion          rivers          4
#> # … with 23 more rows

A bigram can also be treated as a term in a document in the same way that we treated individual words. For example, we can look at the tf-idf (Chapter 3) of bigrams across Austen novels. These tf-idf values can be visualized within each book, just as we did for words (Figure 4.1).

bigram_tf_idf <- bigrams_united %>%
  count(book, bigram) %>%
  bind_tf_idf(bigram, book, n) %>%
  arrange(desc(tf_idf))

bigram_tf_idf
#> # A tibble: 31,397 × 6
#>    book                bigram                n     tf   idf tf_idf
#>    <fct>               <chr>             <int>  <dbl> <dbl>  <dbl>
#>  1 Mansfield Park      sir thomas          266 0.0244  1.79 0.0438
#>  2 Persuasion          captain wentworth   143 0.0232  1.79 0.0416
#>  3 Mansfield Park      miss crawford       196 0.0180  1.79 0.0322
#>  4 Persuasion          lady russell        110 0.0179  1.79 0.0320
#>  5 Persuasion          sir walter          108 0.0175  1.79 0.0314
#>  6 Emma                miss woodhouse      143 0.0129  1.79 0.0231
#>  7 Northanger Abbey    miss tilney          74 0.0128  1.79 0.0229
#>  8 Sense & Sensibility colonel brandon      96 0.0115  1.79 0.0205
#>  9 Sense & Sensibility sir john             94 0.0112  1.79 0.0201
#> 10 Emma                frank churchill     114 0.0103  1.79 0.0184
#> # … with 31,387 more rows
…
Much as we discovered in Chapter 3, the units that distinguish each Austen book are almost exclusively names. We also notice some pairings of a common verb and a name, such as “replied elizabeth” in Pride & Prejudice, or “cried emma” in Emma.

There are advantages and disadvantages to examining the tf-idf of bigrams rather than individual words. Pairs of consecutive words might capture structure that isn’t present when one is just counting single words, and may provide context that makes tokens more understandable (for example, “pulteney street”, in Northanger Abbey, is more informative than “pulteney”). However, the per-bigram counts are also sparser: a typical two-word pair is rarer than either of its component words. Thus, bigrams can be especially useful when you have a very large text dataset.

4.1.3 Using bigrams to provide context in sentiment analysis

Our sentiment analysis approach in Chapter 2 simply counted the appearance of positive or negative words, according to a reference lexicon. One of the problems with this approach is that a word’s context can matter nearly as much as its presence. For example, the words “happy” and “like” will be counted as positive, even in a sentence like “I’m not happy and I don’t like it!”

Now that we have the data organized into bigrams, it’s easy to tell how often words are preceded by a word like “not”:

bigrams_separated %>%
  filter(word1 == "not") %>%
  count(word1, word2, sort = TRUE)
#> # A tibble: 1,178 × 3
#>    word1 word2     n
#>    <chr> <chr> <int>
#>  1 not   be      580
#>  2 not   to      335
#>  3 not   have    307
#>  4 not   know    237
#>  5 not   a       184
#>  6 not   think   162
#>  7 not   been    151
#>  8 not   the     135
#>  9 not   at      126
#> 10 not   in      110
#> # … with 1,168 more rows

By performing sentiment analysis on the bigram data, we can examine how often sentiment-associated words are preceded by “not” or other negating words. We could use this to ignore or even reverse their contribution to the sentiment score.

Let’s use the AFINN lexicon for sentiment analysis, which you may recall gives a numeric sentiment value for each word, with positive or negative numbers indicating the direction of the sentiment.

AFINN <- get_sentiments("afinn")

AFINN

#> # A tibble: 2,477 × 2
#>    word       value
#>    <chr>      <dbl>
#>  1 abandon       -2
#>  2 abandoned     -2
#>  3 abandons      -2
#>  4 abducted      -2
#>  5 abduction     -2
#>  6 abductions    -2
#>  7 abhor         -3
#>  8 abhorred      -3
#>  9 abhorrent     -3
#> 10 abhors        -3
#> # … with 2,467 more rows

We can then examine the most frequent words that were preceded by “not” and were associated with a sentiment.

not_words <- bigrams_separated %>%
  filter(word1 == "not") %>%
  inner_join(AFINN, by = c(word2 = "word")) %>%
  count(word2, value, sort = TRUE)

not_words
#> # A tibble: 229 × 3
#>    word2   value     n
#>    <chr>   <dbl> <int>
#>  1 like        2    95
#>  2 help        2    77
#>  3 want        1    41
#>  4 wish        1    39
#>  5 allow       1    30
#>  6 care        2    21
#>  7 sorry      -1    20
#>  8 leave      -1    17
#>  9 pretend    -1    17
#> 10 worth       2    17
#> # … with 219 more rows
…
We may be interested in visualizing all of the relationships among words simultaneously, rather than just the top few at a time. As one common visualization, we can arrange the words into a network, or “graph.” Here we’ll be referring to a “graph” not in the sense of a visualization, but as a combination of connected nodes. A graph can be constructed from a tidy object since it has three variables:

from: the node an edge is coming from

to: the node an edge is going towards

weight: A numeric value associated with each edge

The igraph package has many powerful functions for manipulating and analyzing networks. One way to create an igraph object from tidy data is the graph_from_data_frame() function, which takes a data frame of edges with columns for “from”, “to”, and edge attributes (in this case n):

library(igraph)

# original counts
bigram_counts
#> # A tibble: 28,975 × 3
#>    word1   word2         n
#>    <chr>   <chr>     <int>
#>  1 <NA>    <NA>      12242
#>  2 sir     thomas      266
#>  3 miss    crawford    196
#>  4 captain wentworth   143
#>  5 miss    woodhouse   143
#>  6 frank   churchill   114
#>  7 lady    russell     110
#>  8 sir     walter      108
#>  9 lady    bertram     101
#> 10 miss    fairfax      98
#> # … with 28,965 more rows
…
We’ll examine some of the ways tidy text can be turned into a wide matrix in Chapter 5, but in this case it isn’t necessary. The widyr package makes operations such as computing counts and correlations easy, by simplifying the pattern of “widen data, perform an operation, then re-tidy data” (Figure 4.7). We’ll focus on a set of functions that make pairwise comparisons between groups of observations (for example, between documents, or sections of text).

4.2.1 Counting and correlating among sections

Consider the book “Pride and Prejudice” divided into 10-line sections, as we did (with larger sections) for sentiment analysis in Chapter 2. We may be interested in what words tend to appear within the same section.

austen_section_words <- austen_books() %>%
  filter(book == "Pride & Prejudice") %>%
  mutate(section = row_number() %/% 10) %>%
  filter(section > 0) %>%
  unnest_tokens(word, text) %>%
  filter(!word %in% stop_words$word)

austen_section_words
#> # A tibble: 37,240 × 3
#>    book              section word        
#>    <fct>               <dbl> <chr>       
#>  1 Pride & Prejudice       1 truth       
#>  2 Pride & Prejudice       1 universally 
#>  3 Pride & Prejudice       1 acknowledged
#>  4 Pride & Prejudice       1 single      
#>  5 Pride & Prejudice       1 possession  
#>  6 Pride & Prejudice       1 fortune     
#>  7 Pride & Prejudice       1 wife        
#>  8 Pride & Prejudice       1 feelings    
#>  9 Pride & Prejudice       1 views       
#> 10 Pride & Prejudice       1 entering    
#> # … with 37,230 more rows

One useful function from widyr is the pairwise_count() function. The prefix pairwise_ means it will result in one row for each pair of words in the word variable. This lets us count common pairs of words co-appearing within the same section:

library(widyr)

# count words co-occuring within sections
word_pairs <- austen_section_words %>%
  pairwise_count(word, section, sort = TRUE)

word_pairs
#> # A tibble: 796,008 × 3
#>    item1     item2         n
#>    <chr>     <chr>     <dbl>
#>  1 darcy     elizabeth   144
#>  2 elizabeth darcy       144
#>  3 miss      elizabeth   110
#>  4 elizabeth miss        110
#>  5 elizabeth jane        106
#>  6 jane      elizabeth   106
#>  7 miss      darcy        92
#>  8 darcy     miss         92
#>  9 elizabeth bingley      91
#> 10 bingley   elizabeth    91
#> # … with 795,998 more rows

Notice that while the input had one row for each pair of a document (a 10-line section) and a word, the output has one row for each pair of words. This is also a tidy format, but of a very different structure that we can use to answer new questions.

For example, we can see that the most common pair of words in a section is “Elizabeth” and “Darcy” (the two main characters). We can easily find the words that most often occur with Darcy:

word_pairs %>%
  filter(item1 == "darcy")
#> # A tibble: 2,930 × 3
#>    item1 item2         n
#>    <chr> <chr>     <dbl>
#>  1 darcy elizabeth   144
#>  2 darcy miss         92
#>  3 darcy bingley      86
#>  4 darcy jane         46
#>  5 darcy bennet       45
#>  6 darcy sister       45
#>  7 darcy time         41
#>  8 darcy lady         38
#>  9 darcy friend       37
#> 10 darcy wickham      37
#> # … with 2,920 more rows
…
\[\phi=\frac{n_{11}n_{00}-n_{10}n_{01}}{\sqrt{n_{1\cdot}n_{0\cdot}n_{\cdot0}n_{\cdot1}}}\]

The phi coefficient is equivalent to the Pearson correlation, which you may have heard of elsewhere when it is applied to binary data.

The pairwise_cor() function in widyr lets us find the phi coefficient between words based on how often they appear in the same section. Its syntax is similar to pairwise_count().

# we need to filter for at least relatively common words first
word_cors <- austen_section_words %>%
  group_by(word) %>%
  filter(n() >= 20) %>%
  pairwise_cor(word, section, sort = TRUE)

word_cors
#> # A tibble: 154,842 × 3
#>    item1     item2     correlation
#>    <chr>     <chr>           <dbl>
#>  1 bourgh    de              0.951
#>  2 de        bourgh          0.951
#>  3 pounds    thousand        0.701
#>  4 thousand  pounds          0.701
#>  5 william   sir             0.664
#>  6 sir       william         0.664
#>  7 catherine lady            0.663
#>  8 lady      catherine       0.663
#>  9 forster   colonel         0.622
#> 10 colonel   forster         0.622
#> # … with 154,832 more rows

This output format is helpful for exploration. For example, we could find the words most correlated with a word like “pounds” using a filter operation.

word_cors %>%
  filter(item1 == "pounds")
#> # A tibble: 393 × 3
#>    item1  item2     correlation
#>    <chr>  <chr>           <dbl>
#>  1 pounds thousand       0.701 
#>  2 pounds ten            0.231 
#>  3 pounds fortune        0.164 
#>  4 pounds settled        0.149 
#>  5 pounds wickham's      0.142 
#>  6 pounds children       0.129 
#>  7 pounds mother's       0.119 
#>  8 pounds believed       0.0932
#>  9 pounds estate         0.0890
#> 10 pounds ready          0.0860
#> # … with 383 more rows
…
