5 Converting to and from non-tidy formats | Text Mining with R
…
We see that this dataset contains 2246 documents (each of them an AP article) and 10473 terms (distinct words). Notice that this DTM is 99% sparse (99% of document-word pairs are zero). We could access the terms in the document with the Terms() function.

terms <- Terms(AssociatedPress)
head(terms)
#> [1] "aaron"      "abandon"    "abandoned"  "abandoning" "abbott"    
#> [6] "abboud"

If we wanted to analyze this data with tidy tools, we would first need to turn it into a data frame with one-token-per-document-per-row. The broom package introduced the tidy() verb, which takes a non-tidy object and turns it into a tidy data frame. The tidytext package implements this method for DocumentTermMatrix objects.

library(dplyr)
library(tidytext)

ap_td <- tidy(AssociatedPress)
ap_td
#> # A tibble: 302,031 × 3
#>    document term       count
#>       <int> <chr>      <dbl>
#>  1        1 adding         1
#>  2        1 adult          2
#>  3        1 ago            1
#>  4        1 alcohol        1
#>  5        1 allegedly      1
#>  6        1 allen          1
#>  7        1 apparently     2
#>  8        1 appeared       1
#>  9        1 arrested       1
#> 10        1 assault        1
#> # … with 302,021 more rows

Notice that we now have a tidy three-column tbl_df, with variables document, term, and count. This tidying operation is similar to the melt() function from the reshape2 package (Wickham 2007) for non-sparse matrices.

Notice that only the non-zero values are included in the tidied output: document 1 includes terms such as “adding” and “adult”, but not “aaron” or “abandon”. This means the tidied version has no rows where count is zero.

As we’ve seen in previous chapters, this form is convenient for analysis with the dplyr, tidytext and ggplot2 packages. For example, you can perform sentiment analysis on these newspaper articles with the approach described in Chapter 2.

ap_sentiments <- ap_td %>%
  inner_join(get_sentiments("bing"), by = c(term = "word"))

ap_sentiments
#> # A tibble: 30,094 × 4
#>    document term    count sentiment
#>       <int> <chr>   <dbl> <chr>    
#>  1        1 assault     1 negative 
#>  2        1 complex     1 negative 
#>  3        1 death       1 negative 
#>  4        1 died        1 negative 
#>  5        1 good        2 positive 
#>  6        1 illness     1 negative 
#>  7        1 killed      2 negative 
#>  8        1 like        2 positive 
#>  9        1 liked       1 positive 
#> 10        1 miracle     1 positive 
#> # … with 30,084 more rows
…
Other text mining packages provide alternative implementations of document-term matrices, such as the dfm (document-feature matrix) class from the quanteda package (Benoit and Nulty 2016). For example, the quanteda package comes with a corpus of presidential inauguration speeches, which can be converted to a dfm using the appropriate functions.

data("data_corpus_inaugural", package = "quanteda")
inaug_dfm <- data_corpus_inaugural %>%
  quanteda::tokens() %>%
  quanteda::dfm(verbose = FALSE)
inaug_dfm
#> Document-feature matrix of: 59 documents, 9,439 features (91.84% sparse) and 4 docvars.

The tidy method works on these document-feature matrices as well, turning them into a one-token-per-document-per-row table:

inaug_td <- tidy(inaug_dfm)
inaug_td
#> # A tibble: 45,453 × 3
#>    document        term            count
#>    <chr>           <chr>           <dbl>
#>  1 1789-Washington fellow-citizens     1
#>  2 1797-Adams      fellow-citizens     3
#>  3 1801-Jefferson  fellow-citizens     2
#>  4 1809-Madison    fellow-citizens     1
#>  5 1813-Madison    fellow-citizens     1
#>  6 1817-Monroe     fellow-citizens     5
#>  7 1821-Monroe     fellow-citizens     1
#>  8 1841-Harrison   fellow-citizens    11
#>  9 1845-Polk       fellow-citizens     1
#> 10 1849-Taylor     fellow-citizens     1
#> # … with 45,443 more rows

We may be interested in finding the words most specific to each of the inaugural speeches. This could be quantified by calculating the tf-idf of each term-speech pair using the bind_tf_idf() function, as described in Chapter 3.

inaug_tf_idf <- inaug_td %>%
  bind_tf_idf(term, document, count) %>%
  arrange(desc(tf_idf))

inaug_tf_idf
#> # A tibble: 45,453 × 6
#>    document        term        count      tf   idf tf_idf
#>    <chr>           <chr>       <dbl>   <dbl> <dbl>  <dbl>
#>  1 1793-Washington arrive          1 0.00680  4.08 0.0277
#>  2 1793-Washington upbraidings     1 0.00680  4.08 0.0277
#>  3 1793-Washington violated        1 0.00680  3.38 0.0230
#>  4 1793-Washington willingly       1 0.00680  3.38 0.0230
#>  5 1793-Washington incurring       1 0.00680  3.38 0.0230
#>  6 1793-Washington previous        1 0.00680  2.98 0.0203
#>  7 1793-Washington knowingly       1 0.00680  2.98 0.0203
#>  8 1793-Washington injunctions     1 0.00680  2.98 0.0203
#>  9 1793-Washington witnesses       1 0.00680  2.98 0.0203
#> 10 1793-Washington besides         1 0.00680  2.69 0.0183
#> # … with 45,443 more rows
…
# first document
acq[[1]]
#> <<PlainTextDocument>>
#> Metadata:  15
#> Content:  chars: 1287

A corpus object is structured like a list, with each item containing both text and metadata (see the tm documentation for more on working with Corpus documents). This is a flexible storage method for documents, but doesn’t lend itself to processing with tidy tools.

We can thus use the tidy() method to construct a table with one row per document, including the metadata (such as id and datetimestamp) as columns alongside the text.

acq_td <- tidy(acq)
acq_td
#> # A tibble: 50 × 16
#>    author   datetimestamp       description heading id    language origin topics
#>    <chr>    <dttm>              <chr>       <chr>   <chr> <chr>    <chr>  <chr> 
#>  1 <NA>     1987-02-26 15:18:06 ""          COMPUT… 10    en       Reute… YES   
#>  2 <NA>     1987-02-26 15:19:15 ""          OHIO M… 12    en       Reute… YES   
#>  3 <NA>     1987-02-26 15:49:56 ""          MCLEAN… 44    en       Reute… YES   
#>  4 By Cal … 1987-02-26 15:51:17 ""          CHEMLA… 45    en       Reute… YES   
#>  5 <NA>     1987-02-26 16:08:33 ""          <COFAB… 68    en       Reute… YES   
#>  6 <NA>     1987-02-26 16:32:37 ""          INVEST… 96    en       Reute… YES   
#>  7 By Patt… 1987-02-26 16:43:13 ""          AMERIC… 110   en       Reute… YES   
#>  8 <NA>     1987-02-26 16:59:25 ""          HONG K… 125   en       Reute… YES   
#>  9 <NA>     1987-02-26 17:01:28 ""          LIEBER… 128   en       Reute… YES   
#> 10 <NA>     1987-02-26 17:08:27 ""          GULF A… 134   en       Reute… YES   
#> # … with 40 more rows, and 8 more variables: lewissplit <chr>, cgisplit <chr>,
#> #   oldid <chr>, places <named list>, people <lgl>, orgs <lgl>,
#> #   exchanges <lgl>, text <chr>

This can then be used with unnest_tokens() to, for example, find the most common words across the 50 Reuters articles, or the ones most specific to each article.

acq_tokens <- acq_td %>%
  select(-places) %>%
  unnest_tokens(word, text) %>%
  anti_join(stop_words, by = "word")

# most common words
acq_tokens %>%
  count(word, sort = TRUE)
#> # A tibble: 1,566 × 2
#>    word         n
#>    <chr>    <int>
#>  1 dlrs       100
#>  2 pct         70
#>  3 mln         65
#>  4 company     63
#>  5 shares      52
#>  6 reuter      50
#>  7 stock       46
#>  8 offer       34
#>  9 share       34
#> 10 american    28
#> # … with 1,556 more rows

# tf-idf
acq_tokens %>%
  count(id, word) %>%
  bind_tf_idf(word, id, n) %>%
  arrange(desc(tf_idf))
#> # A tibble: 2,853 × 6
#>    id    word         n     tf   idf tf_idf
#>    <chr> <chr>    <int>  <dbl> <dbl>  <dbl>
#>  1 186   groupe       2 0.133   3.91  0.522
#>  2 128   liebert      3 0.130   3.91  0.510
#>  3 474   esselte      5 0.109   3.91  0.425
#>  4 371   burdett      6 0.103   3.91  0.405
#>  5 442   hazleton     4 0.103   3.91  0.401
#>  6 199   circuit      5 0.102   3.91  0.399
#>  7 162   suffield     2 0.1     3.91  0.391
#>  8 498   west         3 0.1     3.91  0.391
#>  9 441   rmj          8 0.121   3.22  0.390
#> 10 467   nursery      3 0.0968  3.91  0.379
#> # … with 2,843 more rows
…
Each of the items in the corpus list column is a WebCorpus object, which is a special case of a corpus like acq. We can thus turn each into a data frame using the tidy() function, unnest it with tidyr’s unnest(), then tokenize the text column of the individual articles using unnest_tokens().

stock_tokens <- stock_articles %>%
  mutate(corpus = map(corpus, tidy)) %>%
  unnest(cols = (corpus)) %>%
  unnest_tokens(word, text) %>%
  select(company, datetimestamp, word, id, heading)

stock_tokens
#> # A tibble: 105,057 × 5
#>    company   datetimestamp       word        id                          heading
#>    <chr>     <dttm>              <chr>       <chr>                       <chr>  
#>  1 Microsoft 2017-01-17 12:07:24 microsoft   tag:finance.google.com,clu… Micros…
#>  2 Microsoft 2017-01-17 12:07:24 corporation tag:finance.google.com,clu… Micros…
#>  3 Microsoft 2017-01-17 12:07:24 data        tag:finance.google.com,clu… Micros…
#>  4 Microsoft 2017-01-17 12:07:24 privacy     tag:finance.google.com,clu… Micros…
#>  5 Microsoft 2017-01-17 12:07:24 could       tag:finance.google.com,clu… Micros…
#>  6 Microsoft 2017-01-17 12:07:24 send        tag:finance.google.com,clu… Micros…
#>  7 Microsoft 2017-01-17 12:07:24 msft        tag:finance.google.com,clu… Micros…
#>  8 Microsoft 2017-01-17 12:07:24 stock       tag:finance.google.com,clu… Micros…
#>  9 Microsoft 2017-01-17 12:07:24 soaring     tag:finance.google.com,clu… Micros…
#> 10 Microsoft 2017-01-17 12:07:24 by          tag:finance.google.com,clu… Micros…
#> # … with 105,047 more rows
…
