7 Case study: comparing Twitter archives | Text Mining with R
…
Now we can calculate word frequencies for each person. First, we group by person and count how many times each person used each word. Then we use left_join() to add a column of the total number of words used by each person. (This is higher for Julia than David since she has more tweets than David.) Finally, we calculate a frequency for each person and word.

frequency <- tidy_tweets %>% 
  count(person, word, sort = TRUE) %>% 
  left_join(tidy_tweets %>% 
              count(person, name = "total")) %>%
  mutate(freq = n/total)

frequency
#> # A tibble: 24,067 × 5
#>    person word               n total    freq
#>    <chr>  <chr>          <int> <int>   <dbl>
#>  1 Julia  @selkie1970      570 74152 0.00769
#>  2 Julia  time             557 74152 0.00751
#>  3 Julia  @skedman         531 74152 0.00716
#>  4 Julia  day              437 74152 0.00589
#>  5 Julia  baby             392 74152 0.00529
#>  6 David  @hadleywickham   308 20699 0.0149 
#>  7 Julia  love             302 74152 0.00407
#>  8 Julia  @haleynburke     298 74152 0.00402
#>  9 Julia  house            283 74152 0.00382
#> 10 Julia  morning          278 74152 0.00375
#> # … with 24,057 more rows

This is a nice and tidy data frame but we would actually like to plot those frequencies on the x- and y-axes of a plot, so we will need to use pivot_wider() from tidyr make a differently shaped data frame.

library(tidyr)

frequency <- frequency %>% 
  select(person, word, freq) %>% 
  pivot_wider(names_from = person, values_from = freq) %>%
  arrange(Julia, David)

frequency
#> # A tibble: 21,071 × 3
#>    word               Julia     David
#>    <chr>              <dbl>     <dbl>
#>  1 @accidentalart 0.0000135 0.0000483
#>  2 @alicedata     0.0000135 0.0000483
#>  3 @alistaire     0.0000135 0.0000483
#>  4 @corynissen    0.0000135 0.0000483
#>  5 @jennybryans   0.0000135 0.0000483
#>  6 @jsvine        0.0000135 0.0000483
#>  7 @lewislab      0.0000135 0.0000483
#>  8 @lizasperling  0.0000135 0.0000483
#>  9 @ognyanova     0.0000135 0.0000483
#> 10 @rbloggers     0.0000135 0.0000483
#> # … with 21,061 more rows
…
What are some words that have been about equally likely to come from David or Julia’s account during 2016?

word_ratios %>% 
  arrange(abs(logratio))
#> # A tibble: 351 × 4
#>    word      David   Julia logratio
#>    <chr>     <dbl>   <dbl>    <dbl>
#>  1 words   0.00377 0.00378 -0.00334
#>  2 science 0.00653 0.00648  0.00771
#>  3 idea    0.00577 0.00594 -0.0279 
#>  4 email   0.00251 0.00243  0.0330 
#>  5 file    0.00251 0.00243  0.0330 
#>  6 purrr   0.00251 0.00243  0.0330 
#>  7 test    0.00226 0.00216  0.0454 
#>  8 account 0.00201 0.00189  0.0612 
#>  9 api     0.00201 0.00189  0.0612 
#> 10 sad     0.00201 0.00189  0.0612 
#> # … with 341 more rows
…
words_by_time <- tidy_tweets %>%
  filter(!str_detect(word, "^@")) %>%
  mutate(time_floor = floor_date(timestamp, unit = "1 month")) %>%
  count(time_floor, person, word) %>%
  group_by(person, time_floor) %>%
  mutate(time_total = sum(n)) %>%
  group_by(person, word) %>%
  mutate(word_total = sum(n)) %>%
  ungroup() %>%
  rename(count = n) %>%
  filter(word_total > 30)

words_by_time
#> # A tibble: 326 × 6
#>    time_floor          person word    count time_total word_total
#>    <dttm>              <chr>  <chr>   <int>      <int>      <int>
#>  1 2016-01-01 00:00:00 David  #rstats     2        315        205
#>  2 2016-01-01 00:00:00 David  broom       2        315         34
#>  3 2016-01-01 00:00:00 David  data        2        315        148
#>  4 2016-01-01 00:00:00 David  ggplot2     1        315         37
#>  5 2016-01-01 00:00:00 David  time        2        315         56
#>  6 2016-01-01 00:00:00 David  tweets      1        315         46
#>  7 2016-01-01 00:00:00 Julia  #rstats    10        437        116
#>  8 2016-01-01 00:00:00 Julia  blog        2        437         33
#>  9 2016-01-01 00:00:00 Julia  data        5        437        105
#> 10 2016-01-01 00:00:00 Julia  day         1        437         43
#> # … with 316 more rows

Each row in this data frame corresponds to one person using one word in a given time bin. The count column tells us how many times that person used that word in that time bin, the time_total column tells us how many words that person used during that time bin, and the word_total column tells us how many times that person used that word over the whole year. This is the data set we can use for modeling.

We can use nest() from tidyr to make a data frame with a list column that contains little miniature data frames for each word. Let’s do that now and take a look at the resulting structure.

nested_data <- words_by_time %>%
  nest(data = c(-word, -person)) 

nested_data
#> # A tibble: 32 × 3
#>    person word    data             
#>    <chr>  <chr>   <list>           
#>  1 David  #rstats <tibble [12 × 4]>
#>  2 David  broom   <tibble [10 × 4]>
#>  3 David  data    <tibble [12 × 4]>
#>  4 David  ggplot2 <tibble [10 × 4]>
#>  5 David  time    <tibble [12 × 4]>
#>  6 David  tweets  <tibble [8 × 4]> 
#>  7 Julia  #rstats <tibble [12 × 4]>
#>  8 Julia  blog    <tibble [10 × 4]>
#>  9 Julia  data    <tibble [12 × 4]>
#> 10 Julia  day     <tibble [12 × 4]>
#> # … with 22 more rows

This data frame has one row for each person-word combination; the data column is a list column that contains data frames, one for each combination of person and word. Let’s use map() from purrr (Henry and Wickham 2018) to apply our modeling procedure to each of those little data frames inside our big data frame. This is count data so let’s use glm() with family = "binomial" for modeling.

We can think about this modeling procedure answering a question like, “Was a given word mentioned in a given time bin? Yes or no? How does the count of word mentions depend on time?”

library(purrr)

nested_models <- nested_data %>%
  mutate(models = map(data, ~ glm(cbind(count, time_total) ~ time_floor, ., 
                                  family = "binomial")))

nested_models
#> # A tibble: 32 × 4
#>    person word    data              models
#>    <chr>  <chr>   <list>            <list>
#>  1 David  #rstats <tibble [12 × 4]> <glm> 
#>  2 David  broom   <tibble [10 × 4]> <glm> 
#>  3 David  data    <tibble [12 × 4]> <glm> 
#>  4 David  ggplot2 <tibble [10 × 4]> <glm> 
#>  5 David  time    <tibble [12 × 4]> <glm> 
#>  6 David  tweets  <tibble [8 × 4]>  <glm> 
#>  7 Julia  #rstats <tibble [12 × 4]> <glm> 
#>  8 Julia  blog    <tibble [10 × 4]> <glm> 
#>  9 Julia  data    <tibble [12 × 4]> <glm> 
#> 10 Julia  day     <tibble [12 × 4]> <glm> 
#> # … with 22 more rows
…
Now that we have this second, smaller set of only recent tweets, let’s again use unnest_tokens() to transform these tweets to a tidy data set. Let’s remove all retweets and replies from this data set so we only look at regular tweets that David and Julia have posted directly.

tidy_tweets <- tweets %>% 
  filter(!str_detect(text, "^(RT|@)")) %>%
  mutate(text = str_remove_all(text, remove_reg)) %>%
  unnest_tokens(word, text, token = "tweets", strip_url = TRUE) %>%
  filter(!word %in% stop_words$word,
         !word %in% str_remove_all(stop_words$word, "'"))

tidy_tweets
#> # A tibble: 11,014 × 7
#>         id created_at          source            retweets favorites person word 
#>      <dbl> <dttm>              <chr>                <dbl>     <dbl> <chr>  <chr>
#>  1 8.04e17 2016-12-01 16:44:03 Twitter Web Clie…        0         0 Julia  score
#>  2 8.04e17 2016-12-01 16:44:03 Twitter Web Clie…        0         0 Julia  50   
#>  3 8.04e17 2016-12-01 16:42:03 Twitter Web Clie…        0         9 Julia  snow…
#>  4 8.04e17 2016-12-01 16:42:03 Twitter Web Clie…        0         9 Julia  🌨    
#>  5 8.04e17 2016-12-01 16:42:03 Twitter Web Clie…        0         9 Julia  drin…
#>  6 8.04e17 2016-12-01 16:42:03 Twitter Web Clie…        0         9 Julia  tea  
#>  7 8.04e17 2016-12-01 16:42:03 Twitter Web Clie…        0         9 Julia  🍵   
#>  8 8.04e17 2016-12-01 16:42:03 Twitter Web Clie…        0         9 Julia  #rst…
#>  9 8.04e17 2016-12-01 16:42:03 Twitter Web Clie…        0         9 Julia  😍   
#> 10 8.04e17 2016-12-01 02:56:10 Twitter Web Clie…        0        11 Julia  julie
#> # … with 11,004 more rows
…
Now let’s find the median number of retweets for each word and person. We probably want to count each tweet/word combination only once, so we will use group_by() and summarise() twice, one right after the other. The first summarise() statement counts how many times each word was retweeted, for each tweet and person. In the second summarise() statement, we can find the median retweets for each person and word, also count the number of times each word was used ever by each person and keep that in uses. Next, we can join this to the data frame of retweet totals. Let’s filter() to only keep words mentioned at least 5 times.

word_by_rts <- tidy_tweets %>% 
  group_by(id, word, person) %>% 
  summarise(rts = first(retweets)) %>% 
  group_by(person, word) %>% 
  summarise(retweets = median(rts), uses = n()) %>%
  left_join(totals) %>%
  filter(retweets != 0) %>%
  ungroup()

word_by_rts %>% 
  filter(uses >= 5) %>%
  arrange(desc(retweets))
#> # A tibble: 170 × 5
#>    person word          retweets  uses total_rts
#>    <chr>  <chr>            <dbl> <int>     <dbl>
#>  1 David  animation           85     5     13014
#>  2 David  gganimate           75     6     13014
#>  3 David  error               56     7     13014
#>  4 David  start               56     6     13014
#>  5 David  download            52     5     13014
#>  6 Julia  tidytext            50     7      1750
#>  7 David  introducing         45     6     13014
#>  8 David  understanding       37     6     13014
#>  9 David  ab                  36     5     13014
#> 10 David  bayesian            34     7     13014
#> # … with 160 more rows
…
